{
  "properties" : {
    "author" : [ {
      "properties" : {
        "location" : [ {
          "properties" : {
            "name" : [ "your dms" ]
          },
          "type" : [ "h-card", "p-location" ]
        } ],
        "name" : [ "swyx" ],
        "nickname" : [ "swyx" ],
        "numeric-id" : [ "33521530" ],
        "photo" : [ "https://pbs.twimg.com/profile_images/1456506127961640962/iM2Hf8du.jpg" ],
        "published" : [ "2009-04-20T14:04:41+00:00" ],
        "uid" : [ "tag:twitter.com:swyx" ],
        "url" : [ "https://twitter.com/swyx", "http://swyx.io" ]
      },
      "type" : [ "h-card" ]
    } ],
    "content" : [ {
      "html" : "<div style=\"white-space: pre\">looking back at compensation history\n\nmax raise in a job: 15%\n\nmax raise switching jobs: 150%\n\nGreat Resignation is such a mystery 🤔🤔🤔🤔</div>",
      "value" : "looking back at compensation history\n\nmax raise in a job: 15%\n\nmax raise switching jobs: 150%\n\nGreat Resignation is such a mystery 🤔🤔🤔🤔"
    } ],
    "published" : [ "2022-03-21T14:24:00+00:00" ],
    "uid" : [ "tag:twitter.com:1505913116990836739" ],
    "url" : [ "https://twitter.com/swyx/status/1505913116990836739" ]
  },
  "type" : [ "h-entry" ]
}
